final/cpu_wavedata.vcd
$date
	Wed Jul 16 10:52:15 2025
$end
$version
	Icarus Verilog
$end
$timescale
	100ps
$end
$scope module cpu_tb $end
$var wire 32 ! PC [31:0] $end
$var wire 1 " INSTR_BUSYWAIT $end
$var wire 32 # INSTRUCTION [31:0] $end
$var wire 1 $ IM_READ $end
$var wire 128 % IM_INSTR [127:0] $end
$var wire 1 & IM_BUSYWAIT $end
$var wire 6 ' IM_ADDRESS [5:0] $end
$var wire 32 ( DM_WRITEDATA [31:0] $end
$var wire 1 ) DM_WRITE $end
$var wire 32 * DM_READDATA [31:0] $end
$var wire 1 + DM_READ $end
$var wire 1 , DM_BUSYWAIT $end
$var wire 6 - DM_ADDRESS [5:0] $end
$var wire 8 . CPU_WRITEDATA [7:0] $end
$var wire 1 / CPU_WRITE $end
$var wire 8 0 CPU_READDATA [7:0] $end
$var wire 1 1 CPU_READ $end
$var wire 1 2 CPU_BUSYWAIT $end
$var wire 8 3 CPU_ADDRESS [7:0] $end
$var reg 1 4 CLK $end
$var reg 1 5 RESET $end
$var integer 32 6 i [31:0] $end
$scope module my_datacache $end
$var wire 1 4 clock $end
$var wire 1 7 dirty $end
$var wire 1 8 hit $end
$var wire 1 5 reset $end
$var wire 1 / write $end
$var wire 3 9 tag [2:0] $end
$var wire 1 1 read $end
$var wire 2 : offset [1:0] $end
$var wire 32 ; mem_readdata [31:0] $end
$var wire 1 , mem_busywait $end
$var wire 3 < index [2:0] $end
$var wire 8 = cpu_writeData [7:0] $end
$var wire 8 > address [7:0] $end
$var parameter 3 ? IDLE $end
$var parameter 3 @ MEM_READ $end
$var parameter 3 A MEM_WRITE $end
$var reg 1 2 busywait $end
$var reg 1 B cache_write $end
$var reg 8 C cpu_readData [7:0] $end
$var reg 6 D mem_address [5:0] $end
$var reg 1 + mem_read $end
$var reg 1 ) mem_write $end
$var reg 32 E mem_writedata [31:0] $end
$var reg 3 F next_state [2:0] $end
$var reg 8 G saved_address [7:0] $end
$var reg 1 H saved_write $end
$var reg 8 I saved_writeData [7:0] $end
$var reg 3 J state [2:0] $end
$var reg 1 K tagmatch $end
$var integer 32 L i [31:0] $end
$upscope $end
$scope module my_datamem $end
$var wire 6 M address [5:0] $end
$var wire 1 4 clock $end
$var wire 1 + read $end
$var wire 1 5 reset $end
$var wire 1 ) write $end
$var wire 32 N writedata [31:0] $end
$var reg 1 , busywait $end
$var reg 1 O readaccess $end
$var reg 32 P readdata [31:0] $end
$var reg 1 Q writeaccess $end
$var integer 32 R i [31:0] $end
$upscope $end
$scope module my_icache $end
$var wire 10 S address [9:0] $end
$var wire 1 4 clock $end
$var wire 1 T hit $end
$var wire 128 U instr_block [127:0] $end
$var wire 1 5 reset $end
$var wire 1 V valid $end
$var wire 1 W tagMatch $end
$var wire 3 X tag [2:0] $end
$var wire 32 Y readinst [31:0] $end
$var wire 2 Z offset [1:0] $end
$var wire 128 [ mem_inst [127:0] $end
$var wire 1 & mem_busywait $end
$var wire 3 \ index [2:0] $end
$var wire 3 ] cache_tag [2:0] $end
$var parameter 3 ^ IDLE $end
$var parameter 3 _ MEM_READ $end
$var reg 1 " busywait $end
$var reg 32 ` loaded_instr [31:0] $end
$var reg 6 a mem_address [5:0] $end
$var reg 1 $ mem_read $end
$var reg 3 b next_state [2:0] $end
$var reg 3 c state [2:0] $end
$var integer 32 d i [31:0] $end
$upscope $end
$scope module my_imemory $end
$var wire 6 e address [5:0] $end
$var wire 1 4 clock $end
$var wire 1 $ read $end
$var reg 1 & busywait $end
$var reg 1 f readaccess $end
$var reg 128 g readinst [127:0] $end
$upscope $end
$scope module mycpu $end
$var wire 8 h ADDRESS [7:0] $end
$var wire 1 2 BUSYWAIT $end
$var wire 1 4 CLK $end
$var wire 32 i INSTRUCTION [31:0] $end
$var wire 1 " INSTR_BUSYWAIT $end
$var wire 8 j READDATA [7:0] $end
$var wire 1 5 RESET $end
$var wire 8 k WRITEDATA [7:0] $end
$var wire 8 l registerOp [7:0] $end
$var wire 32 m newPC [31:0] $end
$var wire 8 n negatedOp [7:0] $end
$var wire 1 o flowSelect $end
$var wire 1 p ZERO $end
$var wire 3 q WRITEREG [2:0] $end
$var wire 32 r TARGET [31:0] $end
$var wire 8 s REGOUT2 [7:0] $end
$var wire 8 t REGOUT1 [7:0] $end
$var wire 8 u REGIN [7:0] $end
$var wire 3 v READREG2 [2:0] $end
$var wire 3 w READREG1 [2:0] $end
$var wire 32 x PCplus4 [31:0] $end
$var wire 32 y PCout [31:0] $end
$var wire 8 z OPERAND2 [7:0] $end
$var wire 8 { OFFSET [7:0] $end
$var wire 8 | IMMEDIATE [7:0] $end
$var wire 8 } ALURESULT [7:0] $end
$var reg 3 ~ ALUOP [2:0] $end
$var reg 1 !" BRANCH $end
$var reg 1 "" JUMP $end
$var reg 8 #" OPCODE [7:0] $end
$var reg 32 $" PC [31:0] $end
$var reg 1 1 READ $end
$var reg 1 / WRITE $end
$var reg 1 %" WRITEENABLE $end
$var reg 1 &" dataSelect $end
$var reg 1 '" immSelect $end
$var reg 1 (" signSelect $end
$scope module busywaitMUX $end
$var wire 32 )" IN2 [31:0] $end
$var wire 1 *" SELECT $end
$var wire 32 +" IN1 [31:0] $end
$var reg 32 ," OUT [31:0] $end
$upscope $end
$scope module datamux $end
$var wire 8 -" IN2 [7:0] $end
$var wire 1 &" SELECT $end
$var wire 8 ." IN1 [7:0] $end
$var reg 8 /" OUT [7:0] $end
$upscope $end
$scope module flowctrlmux $end
$var wire 1 o SELECT $end
$var wire 32 0" IN2 [31:0] $end
$var wire 32 1" IN1 [31:0] $end
$var reg 32 2" OUT [31:0] $end
$upscope $end
$scope module immediateMUX $end
$var wire 8 3" IN2 [7:0] $end
$var wire 1 '" SELECT $end
$var wire 8 4" IN1 [7:0] $end
$var reg 8 5" OUT [7:0] $end
$upscope $end
$scope module my_alu $end
$var wire 8 6" DATA2 [7:0] $end
$var wire 3 7" SELECT [2:0] $end
$var wire 1 p ZERO $end
$var wire 8 8" orOut [7:0] $end
$var wire 8 9" forwardOut [7:0] $end
$var wire 8 :" andOut [7:0] $end
$var wire 8 ;" addOut [7:0] $end
$var wire 8 <" DATA1 [7:0] $end
$var reg 8 =" RESULT [7:0] $end
$scope module addUnit $end
$var wire 8 >" DATA2 [7:0] $end
$var wire 8 ?" RESULT [7:0] $end
$var wire 8 @" DATA1 [7:0] $end
$upscope $end
$scope module andUnit $end
$var wire 8 A" DATA2 [7:0] $end
$var wire 8 B" RESULT [7:0] $end
$var wire 8 C" DATA1 [7:0] $end
$upscope $end
$scope module forwardUnit $end
$var wire 8 D" DATA [7:0] $end
$var wire 8 E" RESULT [7:0] $end
$upscope $end
$scope module orUnit $end
$var wire 8 F" DATA2 [7:0] $end
$var wire 8 G" RESULT [7:0] $end
$var wire 8 H" DATA1 [7:0] $end
$upscope $end
$upscope $end
$scope module my_flowControl $end
$var wire 1 !" BRANCH $end
$var wire 1 "" JUMP $end
$var wire 1 o OUT $end
$var wire 1 p ZERO $end
$upscope $end
$scope module my_jumpbranchAdder $end
$var wire 8 I" OFFSET [7:0] $end
$var wire 22 J" signBits [21:0] $end
$var wire 32 K" TARGET [31:0] $end
$var wire 32 L" PC [31:0] $end
$upscope $end
$scope module my_pcAdder $end
$var wire 32 M" PC [31:0] $end
$var wire 32 N" PCplus4 [31:0] $end
$upscope $end
$scope module my_reg $end
$var wire 1 4 CLK $end
$var wire 8 O" IN [7:0] $end
$var wire 3 P" INADDRESS [2:0] $end
$var wire 8 Q" OUT1 [7:0] $end
$var wire 3 R" OUT1ADDRESS [2:0] $end
$var wire 8 S" OUT2 [7:0] $end
$var wire 3 T" OUT2ADDRESS [2:0] $end
$var wire 1 5 RESET $end
$var wire 1 %" WRITE $end
$var integer 32 U" i [31:0] $end
$upscope $end
$scope module my_twosComp $end
$var wire 8 V" IN [7:0] $end
$var wire 8 W" OUT [7:0] $end
$upscope $end
$scope module negationMUX $end
$var wire 8 X" IN1 [7:0] $end
$var wire 8 Y" IN2 [7:0] $end
$var wire 1 (" SELECT $end
$var reg 8 Z" OUT [7:0] $end
$upscope $end
$upscope $end
$upscope $end
$scope module cpu_tb $end
$scope module my_datacache $end
$upscope $end
$scope module my_datamem $end
$upscope $end
$scope module my_icache $end
$upscope $end
$scope module my_imemory $end
$upscope $end
$scope module mycpu $end
$scope module busywaitMUX $end
$upscope $end
$scope module datamux $end
$upscope $end
$scope module flowctrlmux $end
$upscope $end
$scope module immediateMUX $end
$upscope $end
$scope module my_alu $end
$scope module addUnit $end
$upscope $end
$scope module andUnit $end
$upscope $end
$scope module forwardUnit $end
$upscope $end
$scope module orUnit $end
$upscope $end
$upscope $end
$scope module my_flowControl $end
$upscope $end
$scope module my_jumpbranchAdder $end
$upscope $end
$scope module my_pcAdder $end
$upscope $end
$scope module my_reg $end
$upscope $end
$scope module my_twosComp $end
$upscope $end
$scope module negationMUX $end
$upscope $end
$upscope $end
$upscope $end
$scope module cpu_tb $end
$scope module mycpu $end
$scope module my_reg $end
$var reg 8 [" \REGISTER[0] [7:0] $end
$upscope $end
$upscope $end
$upscope $end
$scope module cpu_tb $end
$scope module mycpu $end
$scope module my_reg $end
$var reg 8 \" \REGISTER[1] [7:0] $end
$upscope $end
$upscope $end
$upscope $end
$scope module cpu_tb $end
$scope module mycpu $end
$scope module my_reg $end
$var reg 8 ]" \REGISTER[2] [7:0] $end
$upscope $end
$upscope $end
$upscope $end
$scope module cpu_tb $end
$scope module mycpu $end
$scope module my_reg $end
$var reg 8 ^" \REGISTER[3] [7:0] $end
$upscope $end
$upscope $end
$upscope $end
$scope module cpu_tb $end
$scope module mycpu $end
$scope module my_reg $end
$var reg 8 _" \REGISTER[4] [7:0] $end
$upscope $end
$upscope $end
$upscope $end
$scope module cpu_tb $end
$scope module mycpu $end
$scope module my_reg $end
$var reg 8 `" \REGISTER[5] [7:0] $end
$upscope $end
$upscope $end
$upscope $end
$scope module cpu_tb $end
$scope module mycpu $end
$scope module my_reg $end
$var reg 8 a" \REGISTER[6] [7:0] $end
$upscope $end
$upscope $end
$upscope $end
$scope module cpu_tb $end
$scope module mycpu $end
$scope module my_reg $end
$var reg 8 b" \REGISTER[7] [7:0] $end
$upscope $end
$upscope $end
$upscope $end
$scope module cpu_tb $end
$scope module my_datacache $end
$upscope $end
$scope module my_datamem $end
$upscope $end
$scope module my_icache $end
$upscope $end
$scope module my_imemory $end
$upscope $end
$scope module mycpu $end
$scope module busywaitMUX $end
$upscope $end
$scope module datamux $end
$upscope $end
$scope module flowctrlmux $end
$upscope $end
$scope module immediateMUX $end
$upscope $end
$scope module my_alu $end
$scope module addUnit $end
$upscope $end
$scope module andUnit $end
$upscope $end
$scope module forwardUnit $end
$upscope $end
$scope module orUnit $end
$upscope $end
$upscope $end
$scope module my_flowControl $end
$upscope $end
$scope module my_jumpbranchAdder $end
$upscope $end
$scope module my_pcAdder $end
$upscope $end
$scope module my_reg $end
$upscope $end
$scope module my_twosComp $end
$upscope $end
$scope module negationMUX $end
$upscope $end
$upscope $end
$upscope $end
$scope module cpu_tb $end
$scope module my_datamem $end
$var reg 8 c" \memory_array[0] [7:0] $end
$upscope $end
$upscope $end
$scope module cpu_tb $end
$scope module my_datamem $end
$var reg 8 d" \memory_array[1] [7:0] $end
$upscope $end
$upscope $end
$scope module cpu_tb $end
$scope module my_datamem $end
$var reg 8 e" \memory_array[2] [7:0] $end
$upscope $end
$upscope $end
$scope module cpu_tb $end
$scope module my_datamem $end
$var reg 8 f" \memory_array[3] [7:0] $end
$upscope $end
$upscope $end
$scope module cpu_tb $end
$scope module my_datamem $end
$var reg 8 g" \memory_array[4] [7:0] $end
$upscope $end
$upscope $end
$scope module cpu_tb $end
$scope module my_datamem $end
$var reg 8 h" \memory_array[5] [7:0] $end
$upscope $end
$upscope $end
$scope module cpu_tb $end
$scope module my_datamem $end
$var reg 8 i" \memory_array[6] [7:0] $end
$upscope $end
$upscope $end
$scope module cpu_tb $end
$scope module my_datamem $end
$var reg 8 j" \memory_array[7] [7:0] $end
$upscope $end
$upscope $end
$scope module cpu_tb $end
$scope module my_datamem $end
$var reg 8 k" \memory_array[8] [7:0] $end
$upscope $end
$upscope $end
$scope module cpu_tb $end
$scope module my_datamem $end
$var reg 8 l" \memory_array[9] [7:0] $end
$upscope $end
$upscope $end
$scope module cpu_tb $end
$scope module my_datacache $end
$upscope $end
$scope module my_datamem $end
$upscope $end
$scope module my_icache $end
$upscope $end
$scope module my_imemory $end
$upscope $end
$scope module mycpu $end
$scope module busywaitMUX $end
$upscope $end
$scope module datamux $end
$upscope $end
$scope module flowctrlmux $end
$upscope $end
$scope module immediateMUX $end
$upscope $end
$scope module my_alu $end
$scope module addUnit $end
$upscope $end
$scope module andUnit $end
$upscope $end
$scope module forwardUnit $end
$upscope $end
$scope module orUnit $end
$upscope $end
$upscope $end
$scope module my_flowControl $end
$upscope $end
$scope module my_jumpbranchAdder $end
$upscope $end
$scope module my_pcAdder $end
$upscope $end
$scope module my_reg $end
$upscope $end
$scope module my_twosComp $end
$upscope $end
$scope module negationMUX $end
$upscope $end
$upscope $end
$upscope $end
$scope module cpu_tb $end
$scope module my_datacache $end
$var reg 32 m" \cacheblock_array[0] [31:0] $end
$upscope $end
$upscope $end
$scope module cpu_tb $end
$scope module my_datacache $end
$var reg 32 n" \cacheblock_array[1] [31:0] $end
$upscope $end
$upscope $end
$scope module cpu_tb $end
$scope module my_datacache $end
$var reg 32 o" \cacheblock_array[2] [31:0] $end
$upscope $end
$upscope $end
$scope module cpu_tb $end
$scope module my_datacache $end
$var reg 32 p" \cacheblock_array[3] [31:0] $end
$upscope $end
$upscope $end
$scope module cpu_tb $end
$scope module my_datacache $end
$var reg 32 q" \cacheblock_array[4] [31:0] $end
$upscope $end
$upscope $end
$scope module cpu_tb $end
$scope module my_datacache $end
$var reg 32 r" \cacheblock_array[5] [31:0] $end
$upscope $end
$upscope $end
$scope module cpu_tb $end
$scope module my_datacache $end
$var reg 32 s" \cacheblock_array[6] [31:0] $end
$upscope $end
$upscope $end
$scope module cpu_tb $end
$scope module my_datacache $end
$var reg 32 t" \cacheblock_array[7] [31:0] $end
$upscope $end
$upscope $end
$scope module cpu_tb $end
$scope module my_datacache $end
$upscope $end
$scope module my_datamem $end
$upscope $end
$scope module my_icache $end
$upscope $end
$scope module my_imemory $end
$upscope $end
$scope module mycpu $end
$scope module busywaitMUX $end
$upscope $end
$scope module datamux $end
$upscope $end
$scope module flowctrlmux $end
$upscope $end
$scope module immediateMUX $end
$upscope $end
$scope module my_alu $end
$scope module addUnit $end
$upscope $end
$scope module andUnit $end
$upscope $end
$scope module forwardUnit $end
$upscope $end
$scope module orUnit $end
$upscope $end
$upscope $end
$scope module my_flowControl $end
$upscope $end
$scope module my_jumpbranchAdder $end
$upscope $end
$scope module my_pcAdder $end
$upscope $end
$scope module my_reg $end
$upscope $end
$scope module my_twosComp $end
$upscope $end
$scope module negationMUX $end
$upscope $end
$upscope $end
$upscope $end
$scope module cpu_tb $end
$scope module my_icache $end
$var reg 128 u" \instr_block_array[0] [127:0] $end
$upscope $end
$upscope $end
$scope module cpu_tb $end
$scope module my_icache $end
$var reg 128 v" \instr_block_array[1] [127:0] $end
$upscope $end
$upscope $end
$scope module cpu_tb $end
$scope module my_icache $end
$var reg 128 w" \instr_block_array[2] [127:0] $end
$upscope $end
$upscope $end
$scope module cpu_tb $end
$scope module my_icache $end
$var reg 128 x" \instr_block_array[3] [127:0] $end
$upscope $end
$upscope $end
$scope module cpu_tb $end
$scope module my_icache $end
$var reg 128 y" \instr_block_array[4] [127:0] $end
$upscope $end
$upscope $end
$scope module cpu_tb $end
$scope module my_icache $end
$var reg 128 z" \instr_block_array[5] [127:0] $end
$upscope $end
$upscope $end
$scope module cpu_tb $end
$scope module my_icache $end
$var reg 128 {" \instr_block_array[6] [127:0] $end
$upscope $end
$upscope $end
$scope module cpu_tb $end
$scope module my_icache $end
$var reg 128 |" \instr_block_array[7] [127:0] $end
$upscope $end
$upscope $end
$scope module cpu_tb $end
$scope module my_datacache $end
$upscope $end
$scope module my_datamem $end
$upscope $end
$scope module my_icache $end
$upscope $end
$scope module my_imemory $end
$upscope $end
$scope module mycpu $end
$scope module busywaitMUX $end
$upscope $end
$scope module datamux $end
$upscope $end
$scope module flowctrlmux $end
$upscope $end
$scope module immediateMUX $end
$upscope $end
$scope module my_alu $end
$scope module addUnit $end
$upscope $end
$scope module andUnit $end
$upscope $end
$scope module forwardUnit $end
$upscope $end
$scope module orUnit $end
$upscope $end
$upscope $end
$scope module my_flowControl $end
$upscope $end
$scope module my_jumpbranchAdder $end
$upscope $end
$scope module my_pcAdder $end
$upscope $end
$scope module my_reg $end
$upscope $end
$scope module my_twosComp $end
$upscope $end
$scope module negationMUX $end
$upscope $end
$upscope $end
$upscope $end
$enddefinitions $end
$comment Show the parameter values. $end
$dumpall
b1 _
b0 ^
b10 A
b1 @
b0 ?
$end
#0
$dumpvars
bx |"
bx {"
bx z"
bx y"
bx x"
bx w"
bx v"
bx u"
bx t"
bx s"
bx r"
bx q"
bx p"
bx o"
bx n"
bx m"
b0 l"
b0 k"
b0 j"
b0 i"
b0 h"
b0 g"
b0 f"
b0 e"
b0 d"
b0 c"
bx b"
bx a"
bx `"
bx _"
bx ^"
bx ]"
bx \"
bx ["
bx Z"
bx Y"
bx X"
bx W"
bx V"
bx U"
bx T"
bx S"
bx R"
bx Q"
bx P"
bx O"
bx N"
bx M"
bx L"
bx K"
bx J"
bx I"
bx H"
bx G"
bx F"
bx E"
bx D"
bx C"
bx B"
bx A"
bx @"
bx ?"
bx >"
bx ="
bx <"
bx ;"
bx :"
bx 9"
bx 8"
bx 7"
bx 6"
bx 5"
bx 4"
bx 3"
bx 2"
bx 1"
bx 0"
bx /"
bx ."
bx -"
bx ,"
bx +"
x*"
bx )"
x("
x'"
x&"
x%"
bx $"
bx #"
x""
x!"
bx ~
bx }
bx |
bx {
bx z
bx y
bx x
bx w
bx v
bx u
bx t
bx s
bx r
bx q
xp
xo
bx n
bx m
bx l
bx k
bx j
bx i
bx h
bx g
0f
bx e
b1000 d
b0 c
b0 b
bx a
bx `
bx ]
bx \
bx [
bx Z
bx Y
bx X
xW
xV
bx U
xT
bx S
b100000000 R
0Q
bx P
0O
bx N
bx M
b1000 L
xK
b0 J
bx I
xH
bx G
b0 F
bx E
bx D
bx C
0B
bx >
bx =
bx <
bx ;
bx :
bx 9
x8
x7
b1000 6
15
04
bx 3
02
01
bx 0
0/
bx .
bx -
0,
0+
bx *
0)
bx (
bx '
0&
bx %
0$
bx #
x"
bx !
$end
#10
b0x ]
#40
b1000 L
b1000 d
14
#50
b0 m
b0 ,"
1*"
b0 Z
b0 \
b0 X
1"
b0 S
b0 b"
b0 a"
b0 `"
b0 _"
b0 ^"
b0 ]"
b0 \"
b0 ["
b1000 U"
b0 !
b0 $"
b0 )"
b0 M"
05
#60
b1 b
0T
b100 y
b100 +"
b100 2"
0V
b100 x
b100 1"
b100 L"
b100 N"
#80
04
#120
1f
1&
b0 '
b0 a
b0 e
1$
b1 b
b1 c
14
#160
04
#200
14
#240
04
#280
14
#320
04
#360
14
#400
04
#440
14
#480
04
#520
14
#560
04
#600
14
bx00011011 %
bx00011011 [
bx00011011 g
#640
04
#680
14
#720
04
#760
14
#800
04
#840
14
#880
04
#920
14
#960
04
#1000
14
bx0000000000011011 %
bx0000000000011011 [
bx0000000000011011 g
#1040
04
#1080
14
#1120
04
#1160
14
#1200
04
#1240
14
#1280
04
#1320
14
#1360
04
#1400
14
bx000001000000000000011011 %
bx000001000000000000011011 [
bx000001000000000000011011 g
#1440
04
#1480
14
#1520
04
#1560
14
#1600
04
#1640
14
#1680
04
#1720
14
#1760
04
#1800
14
bx00000000000001000000000000011011 %
bx00000000000001000000000000011011 [
bx00000000000001000000000000011011 g
#1840
04
#1880
14
#1920
04
#1960
14
#2000
04
#2040
14
#2080
04
#2120
14
#2160
04
#2200
14
bx0010001000000000000001000000000000011011 %
bx0010001000000000000001000000000000011011 [
bx0010001000000000000001000000000000011011 g
#2240
04
#2280
14
#2320
04
#2360
14
#2400
04
#2440
14
#2480
04
#2520
14
#2560
04
#2600
14
bx000000000010001000000000000001000000000000011011 %
bx000000000010001000000000000001000000000000011011 [
bx000000000010001000000000000001000000000000011011 g
#2640
04
#2680
14
#2720
04
#2760
14
#2800
04
#2840
14
#2880
04
#2920
14
#2960
04
#3000
14
bx00000101000000000010001000000000000001000000000000011011 %
bx00000101000000000010001000000000000001000000000000011011 [
bx00000101000000000010001000000000000001000000000000011011 g
#3040
04
#3080
14
#3120
04
#3160
14
#3200
04
#3240
14
#3280
04
#3320
14
#3360
04
#3400
14
bx0000000000000101000000000010001000000000000001000000000000011011 %
bx0000000000000101000000000010001000000000000001000000000000011011 [
bx0000000000000101000000000010001000000000000001000000000000011011 g
#3440
04
#3480
14
#3520
04
#3560
14
#3600
04
#3640
14
#3680
04
#3720
14
#3760
04
#3800
14
bx000001010000000000000101000000000010001000000000000001000000000000011011 %
bx000001010000000000000101000000000010001000000000000001000000000000011011 [
bx000001010000000000000101000000000010001000000000000001000000000000011011 g
#3840
04
#3880
14
#3920
04
#3960
14
#4000
04
#4040
14
#4080
04
#4120
14
#4160
04
#4200
14
bx00000100000001010000000000000101000000000010001000000000000001000000000000011011 %
bx00000100000001010000000000000101000000000010001000000000000001000000000000011011 [
bx00000100000001010000000000000101000000000010001000000000000001000000000000011011 g
#4240
04
#4280
14
#4320
04
#4360
14
#4400
04
#4440
14
#4480
04
#4520
14
#4560
04
#4600
14
bx0000011000000100000001010000000000000101000000000010001000000000000001000000000000011011 %
bx0000011000000100000001010000000000000101000000000010001000000000000001000000000000011011 [
bx0000011000000100000001010000000000000101000000000010001000000000000001000000000000011011 g
#4640
04
#4680
14
#4720
04
#4760
14
#4800
04
#4840
14
#4880
04
#4920
14
#4960
04
#5000
14
bx000000100000011000000100000001010000000000000101000000000010001000000000000001000000000000011011 %
bx000000100000011000000100000001010000000000000101000000000010001000000000000001000000000000011011 [
bx000000100000011000000100000001010000000000000101000000000010001000000000000001000000000000011011 g
#5040
04
#5080
14
#5120
04
#5160
14
#5200
04
#5240
14
#5280
04
#5320
14
#5360
04
#5400
14
bx01011010000000100000011000000100000001010000000000000101000000000010001000000000000001000000000000011011 %
bx01011010000000100000011000000100000001010000000000000101000000000010001000000000000001000000000000011011 [
bx01011010000000100000011000000100000001010000000000000101000000000010001000000000000001000000000000011011 g
#5440
04
#5480
14
#5520
04
#5560
14
#5600
04
#5640
14
#5680
04
#5720
14
#5760
04
#5800
14
bx0000000001011010000000100000011000000100000001010000000000000101000000000010001000000000000001000000000000011011 %
bx0000000001011010000000100000011000000100000001010000000000000101000000000010001000000000000001000000000000011011 [
bx0000000001011010000000100000011000000100000001010000000000000101000000000010001000000000000001000000000000011011 g
#5840
04
#5880
14
#5920
04
#5960
14
#6000
04
#6040
14
#6080
04
#6120
14
#6160
04
#6200
14
bx000000010000000001011010000000100000011000000100000001010000000000000101000000000010001000000000000001000000000000011011 %
bx000000010000000001011010000000100000011000000100000001010000000000000101000000000010001000000000000001000000000000011011 [
bx000000010000000001011010000000100000011000000100000001010000000000000101000000000010001000000000000001000000000000011011 g
#6240
04
#6280
14
#6320
04
#6360
14
#6400
04
#6440
14
#6480
04
#6520
14
#6560
04
#6600
b0 c
b1 b
14
0f
0&
b10000000001011010000000100000011000000100000001010000000000000101000000000010001000000000000001000000000000011011 %
b10000000001011010000000100000011000000100000001010000000000000101000000000010001000000000000001000000000000011011 [
b10000000001011010000000100000011000000100000001010000000000000101000000000010001000000000000001000000000000011011 g
#6610
b10000000001011010000000100000011000000100000001010000000000000101000000000010001000000000000001000000000000011011 u"
bx '
bx a
bx e
0$
#6620
b0 b
xT
b0 ]
1V
b10000000001011010000000100000011000000100000001010000000000000101000000000010001000000000000001000000000000011011 U
#6629
1T
1W
#6630
b0 w
b0 R"
b11 v
b11 T"
b100 q
b100 P"
b0 J"
b11011 |
b11011 3"
b100 {
b100 I"
b1000000000000011011 #
b1000000000000011011 Y
b1000000000000011011 i
b1000000000000011011 `
#6640
b100 m
b100 ,"
0o
0*"
b11011 z
b11011 5"
b11011 6"
b11011 >"
b11011 A"
b11011 D"
b11011 F"
0"
0&"
1%"
0!"
0""
0("
1'"
b0 ~
b0 7"
b0 #"
04
#6650
0p
b11011 u
b11011 /"
b11011 O"
b11011 3
b11011 >
b11011 h
b11011 }
b11011 ."
b11011 ="
b0 l
b0 4"
b0 Z"
b0xx0xx :"
b0xx0xx B"
bx11x11 8"
bx11x11 G"
b11011 9"
b11011 E"
b0 .
b0 =
b0 k
b0 t
b0 <"
b0 @"
b0 C"
b0 H"
b0 Q"
b0 s
b0 S"
b0 V"
b0 X"
b10100 r
b10100 0"
b10100 K"
#6660
08
b11 :
b110 <
b0 9
b11011 8"
b11011 G"
b0 :"
b0 B"
b0 n
b0 W"
b0 Y"
#6670
07
b11011 ;"
b11011 ?"
#6680
14
#6690
1*"
b1 Z
1"
b100 S
b11011 _"
b100 !
b100 $"
b100 )"
b100 M"
#6700
b100010 z
b100010 5"
b100010 6"
b100010 >"
b100010 A"
b100010 D"
b100010 F"
b10 v
b10 T"
b101 q
b101 P"
b100010 |
b100010 3"
b101 {
b101 I"
b1010000000000100010 #
b1010000000000100010 Y
b1010000000000100010 i
b1000 y
b1000 +"
b1000 2"
b1010000000000100010 `
b1000 x
b1000 1"
b1000 L"
b1000 N"
#6710
b100010 u
b100010 /"
b100010 O"
b100010 3
b100010 >
b100010 h
b100010 }
b100010 ."
b100010 ="
b100010 8"
b100010 G"
b100010 9"
b100010 E"
#6720
b1000 m
b1000 ,"
0*"
0"
b10 :
b0 <
b1 9
b100010 ;"
b100010 ?"
b11100 r
b11100 0"
b11100 K"
04
#6760
14
#6770
1*"
b10 Z
1"
b1000 S
b1000 !
b1000 $"
b1000 )"
b1000 M"
b100010 `"
#6780
b100 w
b100 R"
b101 z
b101 5"
b101 6"
b101 >"
b101 A"
b101 D"
b101 F"
b101 v
b101 T"
b110 q
b110 P"
b101 |
b101 3"
b110 {
b110 I"
b10000001100000010000000101 #
b10000001100000010000000101 Y
b10000001100000010000000101 i
b1100 y
b1100 +"
b1100 2"
b10000001100000010000000101 `
b1100 x
b1100 1"
b1100 L"
b1100 N"
#6790
b0 z
b0 5"
b0 6"
b0 >"
b0 A"
b0 D"
b0 F"
b101 8"
b101 G"
b101 9"
b101 E"
0'"
b1 ~
b1 7"
b10 #"
#6800
b1100 m
b1100 ,"
b100010 z
b100010 5"
b100010 6"
b100010 >"
b100010 A"
b100010 D"
b100010 F"
0*"
b100010 l
b100010 4"
b100010 Z"
0"
b0 8"
b0 G"
b0 9"
b0 E"
b11011 .
b11011 =
b11011 k
b11011 t
b11011 <"
b11011 @"
b11011 C"
b11011 H"
b11011 Q"
b100010 s
b100010 S"
b100010 V"
b100010 X"
b100100 r
b100100 0"
b100100 K"
04
#6810
b10 :"
b10 B"
b100010 9"
b100010 E"
b111011 8"
b111011 G"
b11011110 n
b11011110 W"
b11011110 Y"
#6820
b111101 u
b111101 /"
b111101 O"
b111101 3
b111101 >
b111101 h
b111101 }
b111101 ."
b111101 ="
b111101 ;"
b111101 ?"
#6830
b1 :
b111 <
#6840
14
#6850
1*"
b11 Z
1"
b1100 S
b111101 a"
b1100 !
b1100 $"
b1100 )"
b1100 M"
#6860
b0 w
b0 R"
b10 v
b10 T"
b1 q
b1 P"
b1011010 |
b1011010 3"
b1 {
b1 I"
b10000000001011010 #
b10000000001011010 Y
b10000000001011010 i
b10000 y
b10000 +"
b10000 2"
b10000000001011010 `
b10000 x
b10000 1"
b10000 L"
b10000 N"
#6870
b100010 u
b100010 /"
b100010 O"
b1011010 z
b1011010 5"
b1011010 6"
b1011010 >"
b1011010 A"
b1011010 D"
b1011010 F"
b100010 3
b100010 >
b100010 h
b100010 }
b100010 ."
b100010 ="
1'"
b0 ~
b0 7"
b0 #"
#6880
b10000 m
b10000 ,"
b1011010 u
b1011010 /"
b1011010 O"
0*"
b1011010 3
b1011010 >
b1011010 h
b1011010 }
b1011010 ."
b1011010 ="
b0 l
b0 4"
b0 Z"
0"
b11010 :"
b11010 B"
b1011011 8"
b1011011 G"
b10 :
b0 <
b1011010 9"
b1011010 E"
b0 .
b0 =
b0 k
b0 t
b0 <"
b0 @"
b0 C"
b0 H"
b0 Q"
b0 s
b0 S"
b0 V"
b0 X"
b10100 r
b10100 0"
b10100 K"
04
#6890
b110 <
b10 9
b1011010 8"
b1011010 G"
b0 :"
b0 B"
b0 n
b0 W"
b0 Y"
#6900
b1011010 ;"
b1011010 ?"
#6920
14
#6930
1*"
b0 Z
b1 \
1"
b10000 S
b10000 !
b10000 $"
b10000 )"
b10000 M"
b1011010 \"
#6940
bx w
bx R"
bx z
bx 5"
bx 6"
bx >"
bx A"
bx D"
bx F"
bx v
bx T"
bx q
bx P"
bx J"
bx |
bx 3"
bx {
bx I"
b1 b
bx #
bx Y
bx i
0T
b10100 y
b10100 +"
b10100 2"
b1000000000000011011 `
bx U
b0x ]
0V
b10100 x
b10100 1"
b10100 L"
b10100 N"
#6949
xW
#6950
xp
bx u
bx /"
bx O"
bx 3
bx >
bx h
bx }
bx ."
bx ="
bx 8"
bx G"
bx 9"
bx E"
bx #"
#6960
x8
bx l
bx 4"
bx Z"
bx :
bx <
bx 9
bx .
bx =
bx k
bx t
bx <"
bx @"
bx C"
bx H"
bx Q"
bx ;"
bx ?"
bx s
bx S"
bx V"
bx X"
bx r
bx 0"
bx K"
04
#6970
bx :"
bx B"
bx n
bx W"
bx Y"
x7
